Chapter 5 Descriptive Statistics | Data Science for Water Professionals - Create Value from Data with the R Language
…
You can add any R function within the summarise statement so you can easily calculate any grouped statistic. Use the n() function to count the number of observations (rows) in each group.

You can also group a data frame or tibble by more than one variable, e.g. group_by(gormsey, Measure, Town) allows you to calculate statistics by town and by measure.

We can now apply this abstract example to the water quality case study. This code produces a new data frame that shows the mean result for each measure and town.

gormsey_grouped <- group_by(gormsey, Measure, Town)
summarise(gormsey_grouped,
          samples = n(),
          min = min(Result),
          mean = mean(Result),
          max = max(Result))

## # A tibble: 28 × 6
## # Groups:   Measure [4]
##    Measure        Town           samples   min   mean   max
##    <chr>          <chr>            <int> <dbl>  <dbl> <dbl>
##  1 Chlorine Total Blancathey         104 0.025 0.824   1.71
##  2 Chlorine Total Merton             107 0.025 0.311   1.76
##  3 Chlorine Total Snake's Canyon     105 0.025 0.373   1.5 
##  4 Chlorine Total Southwold          105 0.025 0.308   1.25
##  5 Chlorine Total Swadlincote        105 0.025 0.339   0.91
##  6 Chlorine Total Tarnstead          105 0.025 0.225   1.41
##  7 Chlorine Total Wakefield          129 0.025 1.00    2.04
##  8 E. coli        Blancathey         104 0     0       0   
##  9 E. coli        Merton             107 0     0.0187  2   
## 10 E. coli        Snake's Canyon     105 0     0.0286  3   
## # … with 18 more rows
…
