Chapter 4 Exploring Data with the Tidyverse | Data Science for Water Professionals - Create Value from Data with the R Language
…
C:/Users/peterp/Documents/r4h2o/casestudy2/gormsey.csv.

In this example, the working directory is C:/Users/peterp/Documents/r4h2o/. Using an RStudio project saves you having to type this every time.

This function reads the content of the CSV file into memory. The content of the file itself is not changed, unless you specifically write it to disk. Best practice in data science is to not change the raw data to ensure reproducibility of the analysis.

The read_csv() function assumes that the first row contains the field names and the following rows contain the data, organised in columns. After you type the quotation marks, you can use the tab button to select a file.

This function has many options you can use to fine-tune how R reads the data. The most common option is skip = n, which instructs the function to ignore the first n rows. This is useful because many CSV files contain metadata in the first few rows. Chapter 8 discusses unruly CSV files in more detail.

After loading the data, R shows a summary. To view the data in the console, simply type gormsey ane ENTER.

gormsey

## # A tibble: 2,422 × 7
##    Sample_No Date       Sample_Point Town           Measure        Result Units 
##        <dbl> <date>     <chr>        <chr>          <chr>           <dbl> <chr> 
##  1    677629 2070-09-10 SN_11009     Snake's Canyon Chlorine Total  0.59  mg/L  
##  2    623402 2070-06-18 SN_11009     Snake's Canyon E. coli         0     Orgs/…
##  3    632223 2070-04-03 SN_11009     Snake's Canyon Chlorine Total  0.025 mg/L  
##  4    642296 2070-06-18 SN_11009     Snake's Canyon Chlorine Total  0.55  mg/L  
##  5    668668 2069-06-13 SN_11009     Snake's Canyon E. coli         0     Orgs/…
##  6    623674 2070-12-17 SN_11009     Snake's Canyon E. coli         0     Orgs/…
##  7    691858 2070-04-03 SN_11009     Snake's Canyon E. coli         0     Orgs/…
##  8    648790 2069-01-30 SN_11009     Snake's Canyon E. coli         0     Orgs/…
##  9    622347 2069-01-30 SN_11009     Snake's Canyon Turbidity       0.2   NTU   
## 10    612134 2069-01-30 SN_11009     Snake's Canyon Chlorine Total  0.025 mg/L  
## # … with 2,412 more rows
…
For example, turbidity[1:10, 4:5] shows the first ten rows and the fourth and fifth variable. When there is no value in either the place for the rows or the columns, R shows all values.

Please note that the tibble functionality in Tidyverse will truncate the output so it fits on the screen.

gormsey[12:13, ] ## Show all variables for row 12 to 13

## # A tibble: 2 × 7
##   Sample_No Date       Sample_Point Town           Measure        Result Units  
##       <dbl> <date>     <chr>        <chr>          <chr>           <dbl> <chr>  
## 1    626675 2069-03-20 SN_11009     Snake's Canyon E. coli          0    Orgs/1…
## 2    697464 2069-03-20 SN_11009     Snake's Canyon Chlorine Total   1.42 mg/L

gormsey[, 4:5]  ## Show all rows with column four and five

## # A tibble: 2,422 × 2
##    Town           Measure       
##    <chr>          <chr>         
##  1 Snake's Canyon Chlorine Total
##  2 Snake's Canyon E. coli       
##  3 Snake's Canyon Chlorine Total
##  4 Snake's Canyon Chlorine Total
##  5 Snake's Canyon E. coli       
##  6 Snake's Canyon E. coli       
##  7 Snake's Canyon E. coli       
##  8 Snake's Canyon E. coli       
##  9 Snake's Canyon Turbidity     
## 10 Snake's Canyon Chlorine Total
## # … with 2,412 more rows
…
