Chapter 8 Cleaning Data | Data Science for Water Professionals - Create Value from Data with the R Language
…
The best way to understand this piped code is to evaluate it step by step and review the output. You can select bits of the code and run them separately.

Review the code below from chapter 5 and rewrite it as a pipe.

gormsey <- read_csv("casestudy1/gormsey.csv")
gormsey_grouped <- group_by(gormsey, Town, Measure)
summarise(gormsey_grouped, mean = mean(Result))

You need to add a pipe symbol to the end of the first line and remove the repeated call of the gormsey_grouped variable:

read_csv("casestudy1/gormsey.csv") %>% 
  group_by(Town, Measure)  %>%
  summarise(mean = mean(Result))

## # A tibble: 33 × 3
## # Groups:   Town [11]
##    Town        Measure      mean
##    <chr>       <chr>       <dbl>
##  1 Bellmoral   E. coli   0      
##  2 Bellmoral   THM       0.0177 
##  3 Bellmoral   Turbidity 0.148  
##  4 Blancathey  E. coli   0.00429
##  5 Blancathey  THM       0.0166 
##  6 Blancathey  Turbidity 0.153  
##  7 Merton      E. coli   0      
##  8 Merton      THM       0.0425 
##  9 Merton      Turbidity 0.147  
## 10 Paethsmouth E. coli   0      
## # … with 23 more rows
…
