Chapter 4 Exploring Data with the Tidyverse Packages | Data Science for Water Professionals - Create Value from Data with the R Language
…
The glimpse() function shows the number of rows and columns, the names of the variables, their types and the first few data points. You can also obtain this information by clicking on the triangle next to the variable name in the Environment tab in RStudio.

The View() function (note the capital V) opens the data in a separate read-only window. This function is the most convenient way to inspect data visually. You can also view the data this way by clicking on the variable name in the Environment tab. You cannot edit the data, but you can sort the information by column by clicking on the variable name.

4.4.3 Explore variables

To view any of the variables within a data frame, you need to add the column name after a $, e.g. gormsey$Result. When you execute this command, R shows a vector of the observations within this variable. You can use this vector in calculations, as explained in the previous session.

If you want to use only a subset of a vector, you can indicate the index number between square brackets. For example: gormsey$Results[1:10] shows the first ten results.

R has various ways to view or analyse a subset of the data. The most basic approach is to add the number of the row and column between square brackets. For example, turbidity[1:10, 4:5] shows the first ten rows and the fourth and fifth variable. When there is no value in either the place for the rows or the columns, R shows all values.

gormsey[, 4:5]  ## Show all rows with column four and five

## # A tibble: 2,879 × 2
##    Town           Measure  
##    <chr>          <chr>    
##  1 Wakefield      Turbidity
##  2 Snake's Canyon Turbidity
##  3 Swadlincote    Turbidity
##  4 Paethsmouth    Turbidity
##  5 Strathmore     Turbidity
##  6 Merton         THM      
##  7 Swadlincote    THM      
##  8 Merton         Turbidity
##  9 Pontybridge    Turbidity
## 10 Southwold      Turbidity
## # … with 2,869 more rows
…
