Chapter 8 Cleaning Data | Data Science for Water Professionals - Create Value from Data with the R Language
…
The best way to understand this piped code is to evaluate it step by step and review the output. You can select bits of the code and run them separately. Make sure you don’t include a pipe as R will otherwise wait for further input.

Practice task: Review the code below from chapter 5 and rewrite it as a pipe.

gormsey <- read_csv("casestudy1/gormsey.csv")
gormsey_grouped <- group_by(gormsey, Town, Measure)
summarise(gormsey_grouped, mean = round(mean(Result), 2))

Answer: You need to add a pipe symbol to the end of the first line and remove the repeated call of the gormsey_grouped variable:

read_csv("casestudy1/gormsey.csv") %>% 
  group_by(Town, Measure)  %>%
  summarise(mean = mean(Result))

## # A tibble: 28 × 3
## # Groups:   Town [7]
##    Town           Measure         mean
##    <chr>          <chr>          <dbl>
##  1 Blancathey     Chlorine Total  0.82
##  2 Blancathey     E. coli         0   
##  3 Blancathey     THM             0.02
##  4 Blancathey     Turbidity       0.81
##  5 Merton         Chlorine Total  0.31
##  6 Merton         E. coli         0.02
##  7 Merton         THM             0.1 
##  8 Merton         Turbidity       0.17
##  9 Snake's Canyon Chlorine Total  0.37
## 10 Snake's Canyon E. coli         0.03
## # … with 18 more rows
…
