R4H2O: Level 1
…
Grouped Analysis

measures <- group_by(labdata, Measure, Suburb)
summarise(measures,
          Samples = n(),
          Mean = mean(Result),
          Median = median(Result),
          p95 = quantile(Result, type = 6, probs = 0.95))

## # A tibble: 28 × 6
## # Groups:   Measure [4]
##    Measure        Suburb      Samples   Mean Median   p95
##    <chr>          <chr>         <int>  <dbl>  <dbl> <dbl>
##  1 Chlorine Total Blancathey      104 0.824   0.865 1.56 
##  2 Chlorine Total Hallburgh       105 0.373   0.19  1.16 
##  3 Chlorine Total Merton          107 0.311   0.1   1.35 
##  4 Chlorine Total Southwold       105 0.308   0.16  0.984
##  5 Chlorine Total Swadlincote     105 0.339   0.32  0.764
##  6 Chlorine Total Tarnstead       105 0.225   0.15  0.704
##  7 Chlorine Total Wakefield       129 1.00    1.07  1.88 
##  8 E. coli        Blancathey      104 0       0     0    
##  9 E. coli        Hallburgh       105 0.0286  0     0    
## 10 E. coli        Merton          107 0.0187  0     0    
## # … with 18 more rows
…
