R^4H_2O
…
Read: vignette("pivot")

Excercice

Open data/labdata_wide.csv

Is this data Tidy?

Each variable forms a column.

Each observation forms a row.

Each type of observational unit forms a table.

## # A tibble: 768 × 7
##    Date       Sample_Point Suburb     `Chlorine Total` `E. coli` Turbidity   THM
##    <date>     <chr>        <chr>                 <dbl>     <dbl>     <dbl> <dbl>
##  1 2069-01-01 ME_15385     Merton                0.18          0     NA       NA
##  2 2069-01-01 ME_12236     Merton                0.59          0     NA       NA
##  3 2069-01-03 SN_11009     Hallburgh             0.08          0      0.2     NA
##  4 2069-01-03 ME_15385     Merton                0.025         0      0.2     NA
##  5 2069-01-03 SO_13252     Southwold             0.025         0      0.1     NA
##  6 2069-01-03 TA_18683     Tarnstead             0.025         0      0.2     NA
##  7 2069-01-03 SW_14121     Swadlinco…            0.38          0      0.2     NA
##  8 2069-01-03 WA_10539     Wakefield             0.025         0      0.1     NA
##  9 2069-01-05 BL_15407     Blancathey            0.5           0      2.24    NA
## 10 2069-01-09 ME_12236     Merton                0.05          0      0.2     NA
## # ℹ 758 more rows

Convert this to a tidy dataset using pivot-longer

Cleaning Lab Data

read_csv("data/laboratory_form.csv") %>% 
  pivot_longer(4:7, names_to = "Measure", values_to = "Result")

## # A tibble: 3,072 × 5
##    Date       Sample_Point Suburb    Measure        Result
##    <date>     <chr>        <chr>     <chr>           <dbl>
##  1 2069-01-01 ME_15385     Merton    Chlorine Total   0.18
##  2 2069-01-01 ME_15385     Merton    E. coli          0   
##  3 2069-01-01 ME_15385     Merton    Turbidity       NA   
##  4 2069-01-01 ME_15385     Merton    THM             NA   
##  5 2069-01-01 ME_12236     Merton    Chlorine Total   0.59
##  6 2069-01-01 ME_12236     Merton    E. coli          0   
##  7 2069-01-01 ME_12236     Merton    Turbidity       NA   
##  8 2069-01-01 ME_12236     Merton    THM             NA   
##  9 2069-01-03 SN_11009     Hallburgh Chlorine Total   0.08
## 10 2069-01-03 SN_11009     Hallburgh E. coli          0   
## # ℹ 3,062 more rows
…
